\relax 
\abx@aux@refcontext{nty/global//global/global}
\abx@aux@cite{mcnally2018predicting}
\abx@aux@segm{0}{0}{mcnally2018predicting}
\abx@aux@cite{sutton2018reinforcement}
\abx@aux@segm{0}{0}{sutton2018reinforcement}
\abx@aux@cite{akbacs2016deepql}
\abx@aux@segm{0}{0}{akbacs2016deepql}
\abx@aux@cite{poloniex}
\abx@aux@segm{0}{0}{poloniex}
\@writefile{toc}{\boolfalse {citerequest}\boolfalse {citetracker}\boolfalse {pagetracker}\boolfalse {backtracker}\relax }
\@writefile{lof}{\boolfalse {citerequest}\boolfalse {citetracker}\boolfalse {pagetracker}\boolfalse {backtracker}\relax }
\@writefile{lot}{\boolfalse {citerequest}\boolfalse {citetracker}\boolfalse {pagetracker}\boolfalse {backtracker}\relax }
\@writefile{toc}{\defcounter {refsection}{0}\relax }\@writefile{toc}{\contentsline {section}{\numberline {1}Abstract}{1}}
\@writefile{toc}{\defcounter {refsection}{0}\relax }\@writefile{toc}{\contentsline {section}{\numberline {2}Introduction}{1}}
\@writefile{toc}{\defcounter {refsection}{0}\relax }\@writefile{toc}{\contentsline {section}{\numberline {3}Project Information}{1}}
\@writefile{toc}{\defcounter {refsection}{0}\relax }\@writefile{toc}{\contentsline {subsection}{\numberline {3.1}Purpose}{1}}
\@writefile{toc}{\defcounter {refsection}{0}\relax }\@writefile{toc}{\contentsline {subsection}{\numberline {3.2}Implementation}{1}}
\abx@aux@cite{watkins1992qlearning}
\abx@aux@segm{0}{0}{watkins1992qlearning}
\abx@aux@cite{mnih2013deeprl}
\abx@aux@segm{0}{0}{mnih2013deeprl}
\newlabel{poloniex}{{3.2}{2}}
\@writefile{toc}{\defcounter {refsection}{0}\relax }\@writefile{toc}{\contentsline {section}{\numberline {4}Background Information}{2}}
\@writefile{toc}{\defcounter {refsection}{0}\relax }\@writefile{toc}{\contentsline {subsection}{\numberline {4.1}Cryptocurrency Exchanges}{2}}
\@writefile{toc}{\defcounter {refsection}{0}\relax }\@writefile{toc}{\contentsline {subsection}{\numberline {4.2}Q-Learning}{2}}
\@writefile{toc}{\defcounter {refsection}{0}\relax }\@writefile{toc}{\contentsline {subsection}{\numberline {4.3}Q-Learning with Neural Networks}{2}}
\@writefile{toc}{\defcounter {refsection}{0}\relax }\@writefile{toc}{\contentsline {section}{\numberline {5}Experimentation}{3}}
\@writefile{toc}{\defcounter {refsection}{0}\relax }\@writefile{toc}{\contentsline {subsection}{\numberline {5.1}Design Architecture}{3}}
\newlabel{agentDetails}{{5.1}{3}}
\@writefile{toc}{\defcounter {refsection}{0}\relax }\@writefile{toc}{\contentsline {subsection}{\numberline {5.2}Data Collection}{3}}
\abx@aux@refcontextdefaultsdone
\abx@aux@defaultrefcontext{0}{akbacs2016deepql}{nty/global//global/global}
\abx@aux@defaultrefcontext{0}{mcnally2018predicting}{nty/global//global/global}
\abx@aux@defaultrefcontext{0}{mnih2013deeprl}{nty/global//global/global}
\abx@aux@defaultrefcontext{0}{poloniex}{nty/global//global/global}
\abx@aux@defaultrefcontext{0}{sutton2018reinforcement}{nty/global//global/global}
\abx@aux@defaultrefcontext{0}{watkins1992qlearning}{nty/global//global/global}
\@writefile{toc}{\defcounter {refsection}{0}\relax }\@writefile{toc}{\contentsline {section}{\numberline {6}Results}{4}}
\@writefile{toc}{\defcounter {refsection}{0}\relax }\@writefile{toc}{\contentsline {section}{\numberline {7}Conclusion}{4}}
